{
  "project_info": {
    "project_number": "353785876853",
    "firebase_url": "https://citywatchandroid.firebaseio.com",
    "project_id": "citywatchandroid",
    "storage_bucket": "citywatchandroid.appspot.com"
  },
  "client": [
    {
      "client_info": {
        "mobilesdk_app_id": "1:353785876853:android:7f151c4cf5cdd82f",
        "android_client_info": {
          "package_name": "com.sofeng.citywatch"
        }
      },
      "oauth_client": [
        {
          "client_id": "353785876853-3rhkg2qkqsr8877g28860h51ua9fk1jh.apps.googleusercontent.com",
          "client_type": 1,
          "android_info": {
            "package_name": "com.sofeng.citywatch",
            "certificate_hash": "43422c1606d215be0f6c8dbebe7e0f7e6500b10d"
          }
        },
        {
          "client_id": "353785876853-lf70kuvp43ocf4mbmjn579t6lbkm5c6b.apps.googleusercontent.com",
          "client_type": 1,
          "android_info": {
            "package_name": "com.sofeng.citywatch",
            "certificate_hash": "054e62707309a533c55f652c55912e094f04ce84"
          }
        },
        {
          "client_id": "353785876853-86el3codu07c7protef7ji60kbiohtek.apps.googleusercontent.com",
          "client_type": 1,
          "android_info": {
            "package_name": "com.sofeng.citywatch",
            "certificate_hash": "1a6250e642cf2d335155e511a910fcd71e299541"
          }
        },
        {
          "client_id": "353785876853-oaralmmquhv54iihe9pcl1bp7b4232ff.apps.googleusercontent.com",
          "client_type": 1,
          "android_info": {
            "package_name": "com.sofeng.citywatch",
            "certificate_hash": "4fbfd8fe2d5aa19703f6178217523e85807340f8"
          }
        },
        {
          "client_id": "353785876853-g3tl4ucp1oot74givh0k1s7ri1ia5474.apps.googleusercontent.com",
          "client_type": 3
        }
      ],
      "api_key": [
        {
          "current_key": "AIzaSyAmJhBPB2a4o1CXo5BItoDUHtndxcc6Rcs"
        }
      ],
      "services": {
        "analytics_service": {
          "status": 1
        },
        "appinvite_service": {
          "status": 2,
          "other_platform_oauth_client": [
            {
              "client_id": "353785876853-g3tl4ucp1oot74givh0k1s7ri1ia5474.apps.googleusercontent.com",
              "client_type": 3
            }
          ]
        },
        "ads_service": {
          "status": 2
        }
      }
    }
  ],
  "configuration_version": "1"
}